…
    applications_centrality <- applications %>%
      select(examiner_id, gender, race, tenure_days) %>% 
      mutate(examiner_id = as.numeric(examiner_id)) %>% # Convert examiner_id to numeric
      inner_join(centrality_scores, by = "examiner_id")

    # Examine the results
    print(applications_centrality)

    ## # A tibble: 100,951 × 7
    ##    examiner_id gender race  tenure_days workgroup degree_centrality betweennes…¹
    ##          <dbl> <chr>  <chr>       <dbl> <chr>                 <dbl>        <dbl>
    ##  1       70017 female Asian        6283 162                       0            0
    ##  2       69138 <NA>   white        6348 161                       4            1
    ##  3       64839 male   white        6254 161                       0            0
    ##  4       94939 <NA>   Asian        6336 162                       0            0
    ##  5       65737 female white        6129 162                       9            0
    ##  6       95225 male   white        6332 162                       0            0
    ##  7       68694 male   white        6350 161                       2            0
    ##  8       90588 female white        6343 161                       1            0
    ##  9       65536 female Asian        6345 162                       1            0
    ## 10       59399 male   white        6339 161                       1            0
    ## # … with 100,941 more rows, and abbreviated variable name
    ## #   ¹​betweenness_centrality
…
